<?xml version="1.0" encoding="UTF-8" standalone="no"?>
<svg
   xmlns:dc="http://purl.org/dc/elements/1.1/"
   xmlns:cc="http://creativecommons.org/ns#"
   xmlns:rdf="http://www.w3.org/1999/02/22-rdf-syntax-ns#"
   xmlns:svg="http://www.w3.org/2000/svg"
   xmlns="http://www.w3.org/2000/svg"
   xmlns:xlink="http://www.w3.org/1999/xlink"
   xmlns:sodipodi="http://sodipodi.sourceforge.net/DTD/sodipodi-0.dtd"
   xmlns:inkscape="http://www.inkscape.org/namespaces/inkscape"
   sodipodi:docname="viewer.svg"
   inkscape:version="1.0 (1.0+r73+1)"
   id="svg8"
   version="1.1"
   viewBox="0 0 88.9 50.8"
   height="2in"
   width="3.5in">
  <defs
     id="defs2">
    <linearGradient
       id="linearGradient1049"
       inkscape:collect="always">
      <stop
         id="stop1045"
         offset="0"
         style="stop-color:#a7f2ff;stop-opacity:0.5032174" />
      <stop
         id="stop1047"
         offset="1"
         style="stop-color:#7ee7ff;stop-opacity:0;" />
    </linearGradient>
    <linearGradient
       inkscape:collect="always"
       id="linearGradient1015">
      <stop
         style="stop-color:#7ee7ff;stop-opacity:1"
         offset="0"
         id="stop1011" />
      <stop
         style="stop-color:#ffb1fd;stop-opacity:0.0671172"
         offset="1"
         id="stop1013" />
    </linearGradient>
    <linearGradient
       inkscape:collect="always"
       id="linearGradient912">
      <stop
         style="stop-color:#2a94e4;stop-opacity:1"
         offset="0"
         id="stop908" />
      <stop
         style="stop-color:#c9bdc0;stop-opacity:1"
         offset="1"
         id="stop910" />
    </linearGradient>
    <linearGradient
       id="linearGradient893-5"
       inkscape:collect="always">
      <stop
         id="stop889"
         offset="0"
         style="stop-color:#782121;stop-opacity:1;" />
      <stop
         id="stop891"
         offset="1"
         style="stop-color:#782121;stop-opacity:0;" />
    </linearGradient>
    <inkscape:path-effect
       bendpath3-nodetypes="ccc"
       bendpath1-nodetypes="ccc"
       bendpath4="M 26.843578,13.540844 V 34.633357"
       bendpath3="m 27.245881,30.372306 16.201596,8.154541 21.169525,-3.329001"
       bendpath2="M 64.583577,13.540844 V 34.633357"
       bendpath1="M 30.957284,19.131132 48.858,16.204696 64.752637,24.513749"
       xx="false"
       yy="true"
       lpeversion="1"
       is_visible="true"
       id="path-effect593"
       effect="envelope" />
    <radialGradient
       gradientUnits="userSpaceOnUse"
       gradientTransform="matrix(1,0,0,0.6210553,0,9.6251954)"
       r="40.304302"
       fy="25.4"
       fx="44.450001"
       cy="25.4"
       cx="44.450001"
       id="radialGradient899"
       xlink:href="#linearGradient893-5"
       inkscape:collect="always" />
    <linearGradient
       gradientUnits="userSpaceOnUse"
       y2="25.4"
       x2="84.754304"
       y1="25.4"
       x1="4.1456965"
       id="linearGradient906"
       xlink:href="#linearGradient912"
       inkscape:collect="always" />
    <linearGradient
       gradientTransform="scale(3.7795275)"
       y2="25.4"
       x2="84.754304"
       y1="25.4"
       x1="4.1456965"
       gradientUnits="userSpaceOnUse"
       id="linearGradient947"
       xlink:href="#linearGradient912"
       inkscape:collect="always" />
    <linearGradient
       y2="25.4"
       x2="84.754304"
       y1="25.4"
       x1="4.1456965"
       gradientTransform="scale(3.7795275)"
       gradientUnits="userSpaceOnUse"
       id="linearGradient961"
       xlink:href="#linearGradient912"
       inkscape:collect="always" />
    <radialGradient
       gradientUnits="userSpaceOnUse"
       gradientTransform="matrix(1,0,0,0.60434181,0,11.179846)"
       r="16.053812"
       fy="28.256325"
       fx="46.67276"
       cy="28.256325"
       cx="46.67276"
       id="radialGradient994"
       xlink:href="#linearGradient1015"
       inkscape:collect="always" />
    <radialGradient
       gradientTransform="matrix(1.6444002,0,0,1.6444002,-28.643587,-16.367764)"
       gradientUnits="userSpaceOnUse"
       r="14.608507"
       fy="25.4"
       fx="44.450001"
       cy="25.4"
       cx="44.450001"
       id="radialGradient1051"
       xlink:href="#linearGradient1049"
       inkscape:collect="always" />
  </defs>
  <sodipodi:namedview
     inkscape:pagecheckerboard="true"
     inkscape:lockguides="true"
     showguides="true"
     inkscape:window-maximized="1"
     inkscape:window-y="27"
     inkscape:window-x="0"
     inkscape:window-height="1016"
     inkscape:window-width="1920"
     units="in"
     showgrid="false"
     inkscape:document-rotation="0"
     inkscape:current-layer="layer1"
     inkscape:document-units="mm"
     inkscape:cy="259.02246"
     inkscape:cx="198.45089"
     inkscape:zoom="0.98994949"
     inkscape:pageshadow="2"
     inkscape:pageopacity="0.0"
     borderopacity="1.0"
     bordercolor="#666666"
     pagecolor="#ffffff"
     id="base" />
  <metadata
     id="metadata5">
    <rdf:RDF>
      <cc:Work
         rdf:about="">
        <dc:format>image/svg+xml</dc:format>
        <dc:type
           rdf:resource="http://purl.org/dc/dcmitype/StillImage" />
        <dc:title></dc:title>
      </cc:Work>
    </rdf:RDF>
  </metadata>
  <g
     id="layer1"
     inkscape:groupmode="layer"
     inkscape:label="Layer 1">
    <path
       sodipodi:nodetypes="ssccccccscccccccccccccccccccccccccccccscsccccccsccccccccccccccccccscccccccccccccccccsscsccccccccccccccccccccccsccccccccccccscccccccsccssccccccccccccscccccccccscccssccccccccccccccccccc"
       transform="scale(0.26458333)"
       d="M 82.28125,1.4414062 C 62.18254,1.3684044 35.364828,2.2901534 22.546875,10.962891 18.100281,13.971495 16.875,22.410156 16.875,22.410156 l 82.671875,41.980469 7.781245,-46 -1.31835,-1.041016 1.32617,1.007813 L 110,2.5996094 c 0,0 -12.08642,-1.1014238 -27.71875,-1.1582032 z m 28.09961,1.1582032 -2.5332,16.1484376 23.0039,17.517578 29.00782,-11.550781 24.84179,18.916015 29.00977,-11.550781 24.84179,18.916016 C 270.68723,38.175472 270.67459,38.141918 238.75977,51.5 l -2.96094,20.324219 42.87109,21.767578 8.20703,-48.535156 C 252.56318,3.6905866 169.99976,2.8113139 110.38086,2.5996094 Z m 103.33008,29.4804686 -28.80469,12.054688 -1.18945,8.167968 10.56445,-1.560546 41.33984,20.992187 2.59766,-20.308594 z m -19.42969,18.66211 -10.58203,1.691406 -3.29102,22.599609 24.8418,18.916016 29.00781,-11.550781 1.28907,-10.083985 z m 39.97656,31.65625 -28.80469,12.054687 -2.23242,15.330075 c 1.39826,0.39818 2.81758,0.80826 4.08789,1.14063 4.22513,1.10549 8.50222,1.99762 12.75391,2.99609 4.57834,0.74835 9.13743,1.6348 13.73633,2.24414 6.36799,0.84374 13.9516,1.52385 20.96094,1.88477 L 278.1543,94.587891 235.71289,72.402344 Z m -53.84961,-7.365235 -4.15039,26.445317 c 2.26116,0.70665 4.5202,1.4203 6.78125,2.12695 5.82655,1.82097 13.36415,4.2321 19.91602,6.10547 l 1.96094,-15.330081 z m 0,0 -28.80468,12.054688 -0.91602,6.287109 c 8.40066,2.732072 16.83214,5.370562 25.26367,8.00586 z m 0,0 2.88086,-22.535156 -55.82031,8.921875 -0.91211,6.248047 24.8418,18.916015 z m -53.85156,-7.365234 0.79688,-6.230469 -26.52735,4.240234 6.67578,13.445313 c 0.46521,0.145851 0.93165,0.289181 1.39649,0.435547 6.31154,1.987332 25.21539,8.322425 31.54492,10.433594 3.27002,1.099011 6.54601,2.178078 9.82617,3.246093 l 0.79688,-6.222656 z m 33.30274,-42.953125 -28.80274,12.054687 -3.46875,23.822266 55.7207,-8.230469 1.06055,-8.300781 z m -52.01954,-5.919922 -7.18554,45.77539 26.80468,-3.958984 3.05664,-23.916016 z M 16.875,22.433594 v 53.654297 c 0.727024,-0.358988 1.651751,-0.821023 2.060547,-1.017579 5.490507,-2.639913 13.857205,-5.324112 19.804687,-6.287109 3.870187,-0.626661 7.814757,-0.630062 11.722657,-0.945312 4.420709,0.277829 8.862292,0.317335 13.261718,0.832031 9.032065,1.056673 17.895236,3.023314 26.65625,5.394531 l 8.654297,-8.679687 z m 262.90234,71.337887 15.62696,-2.308593 c -9.64755,-50.509445 -6.40906,-56.424867 -15.62696,2.308593 z M 99.822266,66.183594 91.476562,74.357422 c 4.94986,1.360216 9.866778,2.845814 14.761718,4.373047 z m -56.292969,6.787109 c -11.009395,1.083632 -12.003237,0.536094 -22.3125,3.982422 -1.481518,0.495264 -2.913313,1.126394 -4.341797,1.763672 v 56.144533 l 63.363281,-9.35938 84.386719,42.84961 5.44922,-32.23047 -22.9707,-18.13476 2.36132,-18.457033 c -5.16337,-1.702944 -10.32383,-3.415408 -15.47265,-5.162109 -7.12826,-2.392149 -15.05843,-5.083601 -22.67578,-7.560547 l 31.59375,63.642579 -32.73243,-64.015626 c -2.6446,-0.855774 -5.24412,-1.6822 -7.74804,-2.455078 C 97.126728,82.341668 91.798511,80.746852 86.433594,79.294922 L 32.205078,132.4043 85.4375,79.021484 C 76.08081,76.524346 66.606284,74.499361 56.943359,73.542969 52.48942,73.102117 48.000924,73.161683 43.529297,72.970703 Z m 103.574223,45.015627 23.0664,17.5664 4.69141,-27.72851 c -8.36466,-2.72025 -16.7303,-5.43742 -25.08399,-8.191408 z M 80.238281,125.50195 16.875,135.62891 c 0,0 38.187439,17.29663 48.546875,23.10742 57.346345,32.16659 66.414695,30.48794 78.695315,30.66406 l 19.99414,-20.05078 z m 215.607999,-32.641131 -15.90097,2.018087 10.34375,20.835934 c 7.2663,-1.6634 11.46792,-4.1343 12.48923,-3.90737 0,0 -1.10605,-5.67055 -6.93201,-18.946651 z m -16.90097,2.521993 -23.18945,22.710938 c 1.89357,0.0899 3.75109,0.16121 5.50976,0.19922 7.99927,0.17289 14.86203,-0.029 22.74219,-1.27539 1.82537,-0.28872 3.63065,-0.69008 5.43164,-1.10938 z m 12.8086,23.283228 27.37109,55.13671 c 4.34565,-53.35946 -15.91459,-58.44377 -15.91459,-58.44377 z m -116.51172,-10.71682 -4.41211,28.10351 1.11523,0.84961 29.00977,-11.55078 1.17383,-9.17578 c -0.61106,-0.1501 -1.22318,-0.296 -1.83203,-0.45508 -7.88661,-2.06039 -16.36048,-4.94248 -24.10157,-7.46093 -0.31775,-0.10338 -0.63536,-0.2072 -0.95312,-0.31055 z m 25.71289,17.40234 -28.80469,12.05664 -4.49219,30.83985 91.69922,-13.54493 59.76758,31.75782 v -12.48828 l -28.14648,-55.05274 c -1.43166,0.45883 -2.8687,0.9055 -4.29102,1.38867 -3.25163,0.65161 -6.4709,1.48652 -9.75391,1.95508 -8.67393,1.23797 -17.46438,1.23279 -26.21093,0.75781 l -39.39454,38.58204 38.51954,-38.62696 c -2.87182,-0.16616 -5.73827,-0.37877 -8.59375,-0.61523 -4.74121,-0.39262 -9.4799,-0.84483 -14.19727,-1.46094 -4.64826,-0.60708 -9.25906,-1.47311 -13.88867,-2.20898 -3.62518,-0.83688 -7.26937,-1.59309 -10.88281,-2.47657 z m 58.40234,29.35156 -93.45508,14.93946 9.8086,19.75781 H 319.125 V 187.375 Z m -91.69922,13.54493 3.95508,-30.91407 -0.875,-0.69336 -5.00781,31.89063 z m -2.75781,1.89843 -19.66211,19.25391 h 29.50586 z"
       style="opacity:0.595942;fill:url(#linearGradient961);fill-opacity:1;stroke:#000000;stroke-width:2.41073;stroke-opacity:0.00579505"
       id="rect140" />
    <path
       inkscape:transform-center-y="0.01898675"
       inkscape:transform-center-x="-0.0096558322"
       d="m 44.246994,25.174657 0.198455,0.217367 0.148474,-0.254141 -0.145403,0.255911 0.287584,0.06267 -0.288318,-0.05921 0.02926,0.292876 -0.03279,-0.292503 -0.269499,0.118334 0.268054,-0.121571 z"
       inkscape:randomized="0"
       inkscape:rounded="0"
       inkscape:flatsided="false"
       sodipodi:arg2="-1.6764019"
       sodipodi:arg1="-2.3047204"
       sodipodi:r2="0.003015761"
       sodipodi:r1="0.29676849"
       sodipodi:cy="25.395023"
       sodipodi:cx="44.445765"
       sodipodi:sides="5"
       id="path291"
       style="opacity:0.595942;fill:#0000ff;stroke:#000000;stroke-width:0.464919;stroke-opacity:0.00579505"
       sodipodi:type="star" />
    <g
       transform="matrix(2.4901091,0,0,2.4901091,-71.770265,-44.961333)"
       style="font-style:normal;font-variant:normal;font-weight:normal;font-stretch:normal;font-size:10.5833px;line-height:1.25;font-family:'DejaVu Math TeX Gyre';-inkscape-font-specification:'DejaVu Math TeX Gyre, Normal';font-variant-ligatures:normal;font-variant-caps:normal;font-variant-numeric:normal;font-variant-east-asian:normal;fill:url(#radialGradient994);fill-opacity:1.0;stroke:none;stroke-width:0.264583"
       id="text543"
       aria-label="Image Viewer">
      <path
         id="path570"
         style="font-style:normal;font-variant:normal;font-weight:normal;font-stretch:normal;font-size:10.5833px;font-family:'DejaVu Math TeX Gyre';-inkscape-font-specification:'DejaVu Math TeX Gyre, Normal';font-variant-ligatures:normal;font-variant-caps:normal;font-variant-numeric:normal;font-variant-east-asian:normal;fill:url(#radialGradient994);stroke-width:0.264583;fill-opacity:1.0"
         d="m 35.438683,23.869666 -2.337218,-0.14436 c 0.0032,-0.10582 0.0036,-0.212072 0.0012,-0.318755 l 0.768285,0.03191 c -0.0048,-1.342845 -0.393467,-2.74432 -1.165903,-4.204427 l -0.91082,0.138892 c -0.07014,-0.117049 -0.1431,-0.23453 -0.218874,-0.352441 l 2.846702,-0.466145 c 0.05679,0.131337 0.111256,0.26232 0.163394,0.39295 l -0.91082,0.138892 c 0.697271,1.516808 1.035328,2.978889 1.014173,4.386242 l 0.768285,0.03191 c -0.0038,0.122133 -0.0099,0.243913 -0.01835,0.36534 z" />
      <path
         id="path572"
         style="font-style:normal;font-variant:normal;font-weight:normal;font-stretch:normal;font-size:10.5833px;font-family:'DejaVu Math TeX Gyre';-inkscape-font-specification:'DejaVu Math TeX Gyre, Normal';font-variant-ligatures:normal;font-variant-caps:normal;font-variant-numeric:normal;font-variant-east-asian:normal;fill:url(#radialGradient994);stroke-width:0.264583;fill-opacity:1.0"
         d="m 43.44262,24.364034 -2.041991,-0.126125 c 0.02182,-0.161236 0.04257,-0.322627 0.06224,-0.484174 l 0.644367,0.02676 c 0.110153,-0.85438 0.195268,-1.712312 0.255343,-2.573798 0.03591,-0.514951 -0.01743,-0.877014 -0.153427,-1.081907 -0.124493,-0.200012 -0.355919,-0.280879 -0.690685,-0.247714 -0.371458,0.0368 -0.646117,0.204364 -0.823962,0.492804 -0.191105,0.291443 -0.280323,0.694161 -0.295164,1.221009 -0.01995,0.708301 -0.06748,1.412554 -0.142598,2.112759 l 0.644368,0.02676 c -0.01818,0.15786 -0.03756,0.315546 -0.05813,0.473058 L 38.825588,24.07886 c 0.01604,-0.144042 0.03047,-0.288324 0.04328,-0.432848 l 0.644367,0.02676 c 0.07565,-0.775227 0.111027,-1.556416 0.106142,-2.343565 -0.0028,-0.45359 -0.0879,-0.772551 -0.242766,-0.950853 -0.149371,-0.179456 -0.390849,-0.250365 -0.719495,-0.217806 -0.371709,0.03683 -0.632272,0.190823 -0.785,0.451968 -0.16604,0.264317 -0.219297,0.625935 -0.194187,1.098066 0.03373,0.634276 0.02867,1.262724 -0.01519,1.885343 l 0.644368,0.02676 c -0.01133,0.140836 -0.02439,0.281414 -0.03918,0.421732 l -2.041991,-0.126125 c 0.01021,-0.126683 0.01826,-0.253693 0.02415,-0.381031 l 0.669151,0.02779 c 0.06126,-1.053834 -0.0069,-2.127198 -0.204522,-3.220091 l -0.783925,0.07789 c -0.02839,-0.12978 -0.05886,-0.259877 -0.09143,-0.390289 l 1.63074,-0.185069 c 0.04232,0.250609 0.0788,0.500339 0.109436,0.749191 0.115527,-0.294748 0.27863,-0.530876 0.498642,-0.707934 0.213234,-0.175877 0.47336,-0.284823 0.777781,-0.320512 0.379112,-0.04444 0.700978,0.0054 0.958475,0.156433 0.263515,0.150314 0.437737,0.388239 0.521138,0.712122 0.144196,-0.348913 0.336343,-0.629542 0.584743,-0.842058 0.260247,-0.207213 0.551048,-0.333117 0.86783,-0.370255 0.510304,-0.05983 0.88517,0.05874 1.1137,0.368792 0.228805,0.296428 0.314851,0.789532 0.255638,1.471711 -0.07973,0.918586 -0.181985,1.834052 -0.306757,2.746396 l 0.669152,0.02779 c -0.02511,0.175046 -0.05086,0.350004 -0.07727,0.524875 z" />
      <path
         id="path574"
         style="font-style:normal;font-variant:normal;font-weight:normal;font-stretch:normal;font-size:10.5833px;font-family:'DejaVu Math TeX Gyre';-inkscape-font-specification:'DejaVu Math TeX Gyre, Normal';font-variant-ligatures:normal;font-variant-caps:normal;font-variant-numeric:normal;font-variant-east-asian:normal;fill:url(#radialGradient994);stroke-width:0.264583;fill-opacity:1.0"
         d="m 48.38799,24.47903 -1.011865,-0.26182 -0.388742,0.08568 c 0.03557,-0.206259 0.07121,-0.412487 0.106933,-0.618684 -0.228151,0.312006 -0.46214,0.551418 -0.703205,0.718155 -0.132626,0.09227 -0.270977,0.169409 -0.415125,0.231377 -0.124122,0.02078 -0.252512,0.02643 -0.38547,0.01749 -0.474125,-0.0319 -0.821639,-0.223745 -1.045588,-0.558192 -0.22985,-0.335335 -0.308399,-0.766314 -0.234391,-1.303569 0.0779,-0.565485 0.295582,-0.999516 0.671035,-1.316226 0.381492,-0.323419 0.883256,-0.510049 1.495566,-0.544225 l 0.106784,-0.006 1.030514,-0.208174 c 0.02344,-0.132366 0.04691,-0.264719 0.07042,-0.39706 0.07838,-0.441334 0.02844,-0.753601 -0.15548,-0.939368 -0.147342,-0.162877 -0.370386,-0.234597 -0.667166,-0.214534 0,0 0,0 0,0 -0.06648,-0.0014 -0.136729,0.0018 -0.210701,0.0095 -0.3422,0.03564 -0.615227,0.154082 -0.814589,0.350209 -0.216908,0.191028 -0.369295,0.457573 -0.460897,0.801657 l -0.409393,0.03099 c 0.04418,-0.367705 0.08654,-0.735635 0.127069,-1.10379 0.290342,-0.162579 0.583678,-0.30066 0.878572,-0.41234 0.262915,-0.100906 0.535333,-0.168929 0.814565,-0.201665 0.05441,-0.0064 0.107608,-0.01133 0.159567,-0.01484 0,0 0,0 0,0 0.592515,-0.08026 1.025292,0.02816 1.290336,0.322262 0.02731,0.03279 0.0525,0.06762 0.07557,0.104491 0,0 0,0 0,0 0.182391,0.501135 0.204902,1.075025 0.07788,1.739747 -0.188031,0.98396 -0.37033,1.969265 -0.546897,2.955916 l 0.645513,0.181053 c -0.03394,0.183914 -0.06754,0.367898 -0.100805,0.551951 z m -1.088066,-1.976442 c 0.07075,-0.4048 0.141792,-0.809482 0.213135,-1.214046 l -1.021613,0.210322 -0.01906,7.36e-4 c -0.379755,0.01466 -0.684515,0.132303 -0.909076,0.345557 -0.213905,0.213676 -0.3489,0.527257 -0.411493,0.946411 -0.05723,0.383264 -0.01221,0.690409 0.133641,0.926024 0.151226,0.235587 0.379706,0.364575 0.687169,0.379005 0.03136,0.0015 0.06238,0.0016 0.09307,2.85e-4 0.280882,-0.08399 0.534295,-0.259015 0.761249,-0.524569 0.245163,-0.315648 0.403561,-0.672545 0.472977,-1.069725 z" />
      <path
         id="path576"
         style="font-style:normal;font-variant:normal;font-weight:normal;font-stretch:normal;font-size:10.5833px;font-family:'DejaVu Math TeX Gyre';-inkscape-font-specification:'DejaVu Math TeX Gyre, Normal';font-variant-ligatures:normal;font-variant-caps:normal;font-variant-numeric:normal;font-variant-east-asian:normal;fill:url(#radialGradient994);stroke-width:0.264583;fill-opacity:1.0"
         d="m 52.63166,23.336888 c 0.0417,-0.152363 0.08444,-0.304545 0.128203,-0.456548 0.15806,-0.548932 0.195162,-1.009483 0.09128,-1.403259 -0.112707,-0.382043 -0.357302,-0.663731 -0.735209,-0.831888 -0.38933,-0.173241 -0.734332,-0.131119 -1.029103,0.142276 -0.28871,0.275318 -0.516622,0.7717 -0.678979,1.481632 -0.160435,0.701527 -0.178328,1.274805 -0.06704,1.697615 0.111723,0.424473 0.357829,0.68248 0.734326,0.786511 0.365455,0.100979 0.677618,0.02378 0.939357,-0.216728 0.262434,-0.241145 0.46371,-0.63892 0.61717,-1.199611 z m 2.119596,-1.422103 -0.724813,-0.320015 c -0.479153,1.297976 -0.864669,2.612057 -1.156548,3.942242 -0.140819,0.641756 -0.394293,1.110093 -0.787188,1.426416 -0.398879,0.294817 -0.907475,0.406316 -1.522089,0.304431 -0.283185,-0.04694 -0.545218,-0.120037 -0.786009,-0.222153 -0.251647,-0.10395 -0.480849,-0.240045 -0.687356,-0.410959 0.06142,-0.371663 0.12522,-0.742878 0.191395,-1.113646 l 0.379805,0.08615 c -0.01294,0.352957 0.05548,0.623267 0.202765,0.809399 0.151962,0.194311 0.393282,0.318916 0.72424,0.380386 0.422447,0.07846 0.760464,-0.0066 1.013011,-0.240814 0.247429,-0.230403 0.422596,-0.631476 0.545443,-1.210405 0.04483,-0.211279 0.09161,-0.42222 0.140339,-0.632823 -0.202787,0.255479 -0.429361,0.426028 -0.684633,0.509052 -0.24946,0.08429 -0.535999,0.08904 -0.858403,0.0075 -0.516709,-0.130665 -0.891037,-0.482784 -1.119096,-1.091577 -0.221329,-0.603619 -0.249751,-1.344196 -0.07242,-2.181973 0.177791,-0.839941 0.494267,-1.453227 0.95675,-1.815079 0.472679,-0.350688 0.987843,-0.382524 1.530284,-0.130912 0.341695,0.158496 0.607015,0.364039 0.793246,0.609189 0.192408,0.2484 0.30798,0.547565 0.351695,0.897948 0.07936,-0.239706 0.161329,-0.478959 0.245904,-0.717759 l 1.49881,0.688266 c -0.05973,0.142142 -0.11811,0.284515 -0.175134,0.427119 z" />
      <path
         id="path578"
         style="font-style:normal;font-variant:normal;font-weight:normal;font-stretch:normal;font-size:10.5833px;font-family:'DejaVu Math TeX Gyre';-inkscape-font-specification:'DejaVu Math TeX Gyre, Normal';font-variant-ligatures:normal;font-variant-caps:normal;font-variant-numeric:normal;font-variant-east-asian:normal;fill:url(#radialGradient994);stroke-width:0.264583;fill-opacity:1.0"
         d="m 58.068104,24.734629 c 0.179995,-0.407313 0.248101,-0.747377 0.172468,-1.043677 -0.08315,-0.291803 -0.307732,-0.526454 -0.680961,-0.693554 -0.355811,-0.159303 -0.692046,-0.171559 -0.999519,-0.02296 -0.309826,0.140816 -0.582498,0.435651 -0.799665,0.880705 z m 0.70187,0.660086 -3.159602,-1.140368 c -0.0037,0.01026 -0.0074,0.02051 -0.01113,0.03077 -0.19588,0.543018 -0.210535,0.991248 -0.07801,1.316633 0.136321,0.340532 0.416401,0.559262 0.830129,0.672199 0.322366,0.088 0.604256,0.0843 0.84726,-0.0021 0.250598,-0.08975 0.462346,-0.255599 0.647329,-0.496801 l 0.583363,0.188848 c -0.262507,0.327741 -0.565067,0.548028 -0.934403,0.659015 -0.36748,0.11043 -0.803145,0.111403 -1.307869,-0.01623 -0.61316,-0.155056 -1.062776,-0.467823 -1.329323,-0.969936 -0.266546,-0.502113 -0.303591,-1.106464 -0.07741,-1.77241 0.223144,-0.65699 0.619642,-1.110344 1.178282,-1.333307 0.558265,-0.218594 1.164069,-0.161912 1.792243,0.129467 0.675082,0.313138 1.081225,0.716778 1.236436,1.181895 0.162729,0.473163 0.06229,0.97012 -0.2173,1.552302 -1e-6,0 -1e-6,1e-6 -1e-6,2e-6 z" />
      <path
         id="path580"
         style="font-style:normal;font-variant:normal;font-weight:normal;font-stretch:normal;font-size:10.5833px;font-family:'DejaVu Math TeX Gyre';-inkscape-font-specification:'DejaVu Math TeX Gyre, Normal';font-variant-ligatures:normal;font-variant-caps:normal;font-variant-numeric:normal;font-variant-east-asian:normal;fill:url(#radialGradient994);stroke-width:0.264583;fill-opacity:1.0"
         d="m 37.574821,28.714205 -0.583529,-0.171546 c -1.407094,1.528006 -3.179523,2.805463 -5.544595,3.796289 l -0.827748,-0.414002 c 0.730575,-1.769237 1.278204,-3.37033 1.416453,-4.839221 l -0.599966,-0.176378 c 0.06654,-0.09237 0.130155,-0.185182 0.190839,-0.278446 l 2.172001,0.594414 c -0.05642,0.109285 -0.115302,0.218194 -0.17666,0.326726 L 32.9559,27.356333 c -0.08877,1.28895 -0.43515,2.672399 -0.910538,4.170761 1.829391,-0.857011 3.26805,-1.907755 4.444588,-3.131819 l -0.673935,-0.198124 c 0.05615,-0.124759 0.110296,-0.249821 0.162427,-0.375187 l 1.747398,0.478214 c -0.04869,0.138254 -0.09904,0.276263 -0.151019,0.414027 z" />
      <path
         id="path582"
         style="font-style:normal;font-variant:normal;font-weight:normal;font-stretch:normal;font-size:10.5833px;font-family:'DejaVu Math TeX Gyre';-inkscape-font-specification:'DejaVu Math TeX Gyre, Normal';font-variant-ligatures:normal;font-variant-caps:normal;font-variant-numeric:normal;font-variant-east-asian:normal;fill:url(#radialGradient994);stroke-width:0.264583;fill-opacity:1.0"
         d="m 37.487272,35.360163 -2.571933,-1.286362 c 0.09344,-0.132807 0.185281,-0.265853 0.27551,-0.399139 l 0.831323,0.406416 c 0.678352,-1.109937 1.263704,-2.233626 1.756055,-3.371067 l -0.73435,-0.272258 c 0.06456,-0.137107 0.127517,-0.274453 0.188863,-0.412039 l 1.486141,0.524071 c -0.50362,1.334304 -1.112527,2.653175 -1.826721,3.956612 l 0.821656,0.401691 c -0.07436,0.15086 -0.14987,0.301552 -0.226544,0.452075 z m 1.682081,-6.205522 c -0.04255,0.132343 -0.123397,0.231277 -0.242562,0.295401 -0.119213,0.06415 -0.242864,0.07529 -0.369904,0.03542 -0.132591,-0.04161 -0.22398,-0.120102 -0.274506,-0.233751 -0.06157,-0.117112 -0.06935,-0.237791 -0.02493,-0.364091 0.04439,-0.126208 0.127473,-0.220081 0.249415,-0.283035 0.112817,-0.07148 0.233984,-0.09058 0.364486,-0.05523 0.114173,0.03093 0.206231,0.104845 0.275826,0.223656 0.05333,0.132914 0.061,0.260878 0.02218,0.381632 z" />
      <path
         id="path584"
         style="font-style:normal;font-variant:normal;font-weight:normal;font-stretch:normal;font-size:10.5833px;font-family:'DejaVu Math TeX Gyre';-inkscape-font-specification:'DejaVu Math TeX Gyre, Normal';font-variant-ligatures:normal;font-variant-caps:normal;font-variant-numeric:normal;font-variant-east-asian:normal;fill:url(#radialGradient994);stroke-width:0.264583;fill-opacity:1.0"
         d="m 42.785981,34.448836 c 0.130596,-0.637086 0.128477,-1.164679 0.0049,-1.564472 -0.131662,-0.397516 -0.382326,-0.657583 -0.756256,-0.7939 -0.356547,-0.12998 -0.676257,-0.07556 -0.965464,0.149998 -0.29293,0.216886 -0.553855,0.599469 -0.786542,1.148011 z m 0.829046,0.96687 -3.501034,-1.535802 c -0.0044,0.01259 -0.0088,0.02518 -0.01319,0.03777 -0.233819,0.668917 -0.301732,1.214102 -0.173019,1.667481 0.129422,0.465538 0.447537,0.829575 0.948576,1.076522 0.389921,0.192181 0.73525,0.242819 1.030123,0.143611 0.303455,-0.103118 0.55046,-0.345034 0.74471,-0.725981 l 0.670979,0.311128 c -0.261152,0.556483 -0.613511,0.893145 -1.067553,1.009794 -0.453232,0.116441 -0.997407,0.0092 -1.619867,-0.303892 -0.755993,-0.380306 -1.269833,-0.927568 -1.523899,-1.605199 -0.255646,-0.681842 -0.205759,-1.368924 0.08895,-2.118427 0.28807,-0.732613 0.705788,-1.253378 1.241519,-1.581194 0.534501,-0.32205 1.099921,-0.396219 1.715883,-0.182077 0.662146,0.230197 1.110609,0.653352 1.36041,1.309002 0.252916,0.651074 0.29446,1.50087 0.09741,2.497261 0,10e-7 0,2e-6 0,3e-6 z" />
      <path
         id="path586"
         style="font-style:normal;font-variant:normal;font-weight:normal;font-stretch:normal;font-size:10.5833px;font-family:'DejaVu Math TeX Gyre';-inkscape-font-specification:'DejaVu Math TeX Gyre, Normal';font-variant-ligatures:normal;font-variant-caps:normal;font-variant-numeric:normal;font-variant-east-asian:normal;fill:url(#radialGradient994);stroke-width:0.264583;fill-opacity:1.0"
         d="m 52.297985,32.627813 -0.533057,0.02187 c -0.457379,1.460488 -0.890162,3.007088 -1.357696,4.630367 l -0.816933,0.126227 c -0.497505,-1.23094 -0.877705,-2.498231 -1.174648,-3.807286 -0.50727,1.360823 -1.033859,2.775341 -1.613816,4.238142 l -0.784255,0.121178 c -0.179017,-0.781875 -0.328188,-1.577611 -0.454213,-2.388272 -0.138103,-0.846336 -0.253128,-1.689454 -0.353214,-2.53065 l -0.547796,0.110487 c 0.03473,-0.191935 0.06937,-0.383866 0.103933,-0.575795 l 1.28351,-0.263677 0.881655,-0.02184 c -0.02507,0.187441 -0.04985,0.374944 -0.07434,0.56251 l -0.772016,0.03168 c 0.161281,1.287633 0.368343,2.537201 0.646727,3.752762 0.607037,-1.517089 1.161337,-2.980533 1.701736,-4.384159 l 0.570078,-0.01412 c 0.28736,1.35853 0.661889,2.671271 1.162135,3.944349 0.37191,-1.216421 0.727877,-2.388172 1.093664,-3.511159 l -0.689299,0.02829 c 0.0047,-0.167065 0.01043,-0.333965 0.01705,-0.500701 l 1.701184,-0.04214 c 0.002,0.157101 0.0052,0.314414 0.0096,0.47194 z" />
      <path
         id="path588"
         style="font-style:normal;font-variant:normal;font-weight:normal;font-stretch:normal;font-size:10.5833px;font-family:'DejaVu Math TeX Gyre';-inkscape-font-specification:'DejaVu Math TeX Gyre, Normal';font-variant-ligatures:normal;font-variant-caps:normal;font-variant-numeric:normal;font-variant-east-asian:normal;fill:url(#radialGradient994);stroke-width:0.264583;fill-opacity:1.0"
         d="m 56.724877,33.751808 c -0.152955,-0.470822 -0.353822,-0.820887 -0.617553,-1.057491 -0.268485,-0.230696 -0.596798,-0.344157 -0.998236,-0.329912 -0.383067,0.01359 -0.668008,0.152858 -0.855011,0.430179 -0.192312,0.269827 -0.287224,0.672377 -0.25599,1.196784 z m 1.169798,0.305639 -3.825711,0.386683 c 0.0019,0.01163 0.0039,0.02326 0.0058,0.03489 0.103663,0.618168 0.334072,1.064212 0.682723,1.329016 0.358793,0.275662 0.824958,0.366753 1.378109,0.284773 0.430444,-0.06379 0.746006,-0.201847 0.942702,-0.407192 0.202537,-0.212682 0.287532,-0.482427 0.271561,-0.812782 l 0.736872,-0.09055 c 0.04035,0.456848 -0.0797,0.828782 -0.397552,1.123072 -0.3158,0.292386 -0.82289,0.500026 -1.511026,0.608082 -0.835826,0.131247 -1.571323,0.02144 -2.158293,-0.356135 -0.586612,-0.377346 -0.912913,-0.950789 -0.999488,-1.698395 -0.08469,-0.731332 0.09574,-1.344934 0.478102,-1.801734 0.386358,-0.455229 0.904855,-0.671044 1.564344,-0.684413 0.706466,-0.01432 1.276046,0.170386 1.740921,0.524246 0.47167,0.354118 0.826677,0.867624 1.090911,1.560441 0,10e-7 0,2e-6 0,2e-6 z" />
      <path
         id="path590"
         style="font-style:normal;font-variant:normal;font-weight:normal;font-stretch:normal;font-size:10.5833px;font-family:'DejaVu Math TeX Gyre';-inkscape-font-specification:'DejaVu Math TeX Gyre, Normal';font-variant-ligatures:normal;font-variant-caps:normal;font-variant-numeric:normal;font-variant-east-asian:normal;fill:url(#radialGradient994);stroke-width:0.264583;fill-opacity:1.0"
         d="m 62.50688,32.679422 -0.489746,0.03125 c -0.09851,-0.155286 -0.228999,-0.26998 -0.394983,-0.346219 -0.157453,-0.07232 -0.348329,-0.104959 -0.574666,-0.09567 -0.409146,0.01679 -0.677932,0.126791 -0.800049,0.342542 -0.131357,0.218754 -0.116361,0.528705 0.08449,0.916806 0.280763,0.542523 0.614148,1.09374 1.000155,1.65365 l 1.10914,-0.160543 c 0.09242,0.117993 0.187537,0.23643 0.285353,0.355313 l -2.99542,0.462833 c -0.07651,-0.131586 -0.150765,-0.262797 -0.222756,-0.393633 l 0.86385,-0.125038 c -0.624064,-1.016423 -1.095177,-2.007518 -1.413338,-2.973286 l -0.790154,0.03218 c -0.03489,-0.12268 -0.06761,-0.245 -0.09817,-0.366961 l 1.592599,-0.03945 c 0.06934,0.204049 0.146612,0.409409 0.231813,0.616078 0.06125,-0.251019 0.203035,-0.434819 0.413215,-0.553817 0.205013,-0.119334 0.486648,-0.178895 0.846946,-0.186199 0.132214,-0.0027 0.272949,6.62e-4 0.422811,0.0096 0.162533,0.01676 0.325614,0.03304 0.489251,0.04884 0.128073,0.254203 0.274625,0.511442 0.439658,0.771718 z" />
    </g>
    <circle
       d="m 45.92202,15.307938 a 15.988806,14.06694 0 0 1 -0.718325,4.169017 L 29.933214,15.307938 Z"
       sodipodi:arc-type="slice"
       sodipodi:end="0.30088953"
       sodipodi:start="0"
       sodipodi:ry="14.06694"
       sodipodi:rx="15.988806"
       sodipodi:cy="15.307938"
       sodipodi:cx="29.933214"
       sodipodi:type="arc"
       id="path1021"
       style="opacity:0.595942;fill:#7ee7ff;fill-opacity:0.0787716;stroke:#000000;stroke-width:0.332999;stroke-opacity:0.00579505" />
    <circle
       d="m 87.862574,37.696712 a 24.824598,24.824598 0 0 1 -1.115289,7.357264 l -23.70931,-7.357264 z"
       sodipodi:arc-type="slice"
       sodipodi:end="0.30088953"
       sodipodi:start="0"
       sodipodi:ry="24.824598"
       sodipodi:rx="24.824598"
       sodipodi:cy="37.696712"
       sodipodi:cx="63.037975"
       sodipodi:type="arc"
       id="path1027"
       style="opacity:0.595942;fill:#7ee7ff;fill-opacity:0.0787716;stroke:#000000;stroke-width:0.332999;stroke-opacity:0.00579505" />
    <path
       d="m 48.972147,19.737854 a 6.3039036,5.1181712 0 0 1 -0.283214,1.516872 l -6.02069,-1.516872 z"
       sodipodi:arc-type="slice"
       sodipodi:end="0.30088953"
       sodipodi:start="0"
       sodipodi:ry="5.1181712"
       sodipodi:rx="6.3039036"
       sodipodi:cy="19.737854"
       sodipodi:cx="42.668243"
       sodipodi:type="arc"
       id="path1031"
       style="opacity:0.595942;fill:#7ee7ff;fill-opacity:0.0787716;stroke:#000000;stroke-width:0.332999;stroke-opacity:0.00579505" />
    <circle
       r="23.901894"
       cy="25.4"
       cx="44.450001"
       id="path1043"
       style="opacity:0.595942;fill:url(#radialGradient1051);fill-opacity:1;stroke:#000000;stroke-width:0.240678;stroke-opacity:0.00579505" />
  </g>
  <script
     id="mesh_polyfill"
     type="text/javascript">
!function(){const t=&quot;http://www.w3.org/2000/svg&quot;,e=&quot;http://www.w3.org/1999/xlink&quot;,s=&quot;http://www.w3.org/1999/xhtml&quot;,r=2;if(document.createElementNS(t,&quot;meshgradient&quot;).x)return;const n=(t,e,s,r)=&gt;{let n=new x(.5*(e.x+s.x),.5*(e.y+s.y)),o=new x(.5*(t.x+e.x),.5*(t.y+e.y)),i=new x(.5*(s.x+r.x),.5*(s.y+r.y)),a=new x(.5*(n.x+o.x),.5*(n.y+o.y)),h=new x(.5*(n.x+i.x),.5*(n.y+i.y)),l=new x(.5*(a.x+h.x),.5*(a.y+h.y));return[[t,o,a,l],[l,h,i,r]]},o=t=&gt;{let e=t[0].distSquared(t[1]),s=t[2].distSquared(t[3]),r=.25*t[0].distSquared(t[2]),n=.25*t[1].distSquared(t[3]),o=e&gt;s?e:s,i=r&gt;n?r:n;return 18*(o&gt;i?o:i)},i=(t,e)=&gt;Math.sqrt(t.distSquared(e)),a=(t,e)=&gt;t.scale(2/3).add(e.scale(1/3)),h=t=&gt;{let e,s,r,n,o,i,a,h=new g;return t.match(/(\w+\(\s*[^)]+\))+/g).forEach(t=&gt;{let l=t.match(/[\w.-]+/g),d=l.shift();switch(d){case&quot;translate&quot;:2===l.length?e=new g(1,0,0,1,l[0],l[1]):(console.error(&quot;mesh.js: translate does not have 2 arguments!&quot;),e=new g(1,0,0,1,0,0)),h=h.append(e);break;case&quot;scale&quot;:1===l.length?s=new g(l[0],0,0,l[0],0,0):2===l.length?s=new g(l[0],0,0,l[1],0,0):(console.error(&quot;mesh.js: scale does not have 1 or 2 arguments!&quot;),s=new g(1,0,0,1,0,0)),h=h.append(s);break;case&quot;rotate&quot;:if(3===l.length&amp;&amp;(e=new g(1,0,0,1,l[1],l[2]),h=h.append(e)),l[0]){r=l[0]*Math.PI/180;let t=Math.cos(r),e=Math.sin(r);Math.abs(t)&lt;1e-16&amp;&amp;(t=0),Math.abs(e)&lt;1e-16&amp;&amp;(e=0),a=new g(t,e,-e,t,0,0),h=h.append(a)}else console.error(&quot;math.js: No argument to rotate transform!&quot;);3===l.length&amp;&amp;(e=new g(1,0,0,1,-l[1],-l[2]),h=h.append(e));break;case&quot;skewX&quot;:l[0]?(r=l[0]*Math.PI/180,n=Math.tan(r),o=new g(1,0,n,1,0,0),h=h.append(o)):console.error(&quot;math.js: No argument to skewX transform!&quot;);break;case&quot;skewY&quot;:l[0]?(r=l[0]*Math.PI/180,n=Math.tan(r),i=new g(1,n,0,1,0,0),h=h.append(i)):console.error(&quot;math.js: No argument to skewY transform!&quot;);break;case&quot;matrix&quot;:6===l.length?h=h.append(new g(...l)):console.error(&quot;math.js: Incorrect number of arguments for matrix!&quot;);break;default:console.error(&quot;mesh.js: Unhandled transform type: &quot;+d)}}),h},l=t=&gt;{let e=[],s=t.split(/[ ,]+/);for(let t=0,r=s.length-1;t&lt;r;t+=2)e.push(new x(parseFloat(s[t]),parseFloat(s[t+1])));return e},d=(t,e)=&gt;{for(let s in e)t.setAttribute(s,e[s])},c=(t,e,s,r,n)=&gt;{let o,i,a=[0,0,0,0];for(let h=0;h&lt;3;++h)e[h]&lt;t[h]&amp;&amp;e[h]&lt;s[h]||t[h]&lt;e[h]&amp;&amp;s[h]&lt;e[h]?a[h]=0:(a[h]=.5*((e[h]-t[h])/r+(s[h]-e[h])/n),o=Math.abs(3*(e[h]-t[h])/r),i=Math.abs(3*(s[h]-e[h])/n),a[h]&gt;o?a[h]=o:a[h]&gt;i&amp;&amp;(a[h]=i));return a},u=[[1,0,0,0,0,0,0,0,0,0,0,0,0,0,0,0],[0,0,0,0,1,0,0,0,0,0,0,0,0,0,0,0],[-3,3,0,0,-2,-1,0,0,0,0,0,0,0,0,0,0],[2,-2,0,0,1,1,0,0,0,0,0,0,0,0,0,0],[0,0,0,0,0,0,0,0,1,0,0,0,0,0,0,0],[0,0,0,0,0,0,0,0,0,0,0,0,1,0,0,0],[0,0,0,0,0,0,0,0,-3,3,0,0,-2,-1,0,0],[0,0,0,0,0,0,0,0,2,-2,0,0,1,1,0,0],[-3,0,3,0,0,0,0,0,-2,0,-1,0,0,0,0,0],[0,0,0,0,-3,0,3,0,0,0,0,0,-2,0,-1,0],[9,-9,-9,9,6,3,-6,-3,6,-6,3,-3,4,2,2,1],[-6,6,6,-6,-3,-3,3,3,-4,4,-2,2,-2,-2,-1,-1],[2,0,-2,0,0,0,0,0,1,0,1,0,0,0,0,0],[0,0,0,0,2,0,-2,0,0,0,0,0,1,0,1,0],[-6,6,6,-6,-4,-2,4,2,-3,3,-3,3,-2,-1,-2,-1],[4,-4,-4,4,2,2,-2,-2,2,-2,2,-2,1,1,1,1]],f=t=&gt;{let e=[];for(let s=0;s&lt;16;++s){e[s]=0;for(let r=0;r&lt;16;++r)e[s]+=u[s][r]*t[r]}return e},p=(t,e,s)=&gt;{const r=e*e,n=s*s,o=e*e*e,i=s*s*s;return t[0]+t[1]*e+t[2]*r+t[3]*o+t[4]*s+t[5]*s*e+t[6]*s*r+t[7]*s*o+t[8]*n+t[9]*n*e+t[10]*n*r+t[11]*n*o+t[12]*i+t[13]*i*e+t[14]*i*r+t[15]*i*o},y=t=&gt;{let e=[],s=[],r=[];for(let s=0;s&lt;4;++s)e[s]=[],e[s][0]=n(t[0][s],t[1][s],t[2][s],t[3][s]),e[s][1]=[],e[s][1].push(...n(...e[s][0][0])),e[s][1].push(...n(...e[s][0][1])),e[s][2]=[],e[s][2].push(...n(...e[s][1][0])),e[s][2].push(...n(...e[s][1][1])),e[s][2].push(...n(...e[s][1][2])),e[s][2].push(...n(...e[s][1][3]));for(let t=0;t&lt;8;++t){s[t]=[];for(let r=0;r&lt;4;++r)s[t][r]=[],s[t][r][0]=n(e[0][2][t][r],e[1][2][t][r],e[2][2][t][r],e[3][2][t][r]),s[t][r][1]=[],s[t][r][1].push(...n(...s[t][r][0][0])),s[t][r][1].push(...n(...s[t][r][0][1])),s[t][r][2]=[],s[t][r][2].push(...n(...s[t][r][1][0])),s[t][r][2].push(...n(...s[t][r][1][1])),s[t][r][2].push(...n(...s[t][r][1][2])),s[t][r][2].push(...n(...s[t][r][1][3]))}for(let t=0;t&lt;8;++t){r[t]=[];for(let e=0;e&lt;8;++e)r[t][e]=[],r[t][e][0]=s[t][0][2][e],r[t][e][1]=s[t][1][2][e],r[t][e][2]=s[t][2][2][e],r[t][e][3]=s[t][3][2][e]}return r};class x{constructor(t,e){this.x=t||0,this.y=e||0}toString(){return`(x=${this.x}, y=${this.y})`}clone(){return new x(this.x,this.y)}add(t){return new x(this.x+t.x,this.y+t.y)}scale(t){return void 0===t.x?new x(this.x*t,this.y*t):new x(this.x*t.x,this.y*t.y)}distSquared(t){let e=this.x-t.x,s=this.y-t.y;return e*e+s*s}transform(t){let e=this.x*t.a+this.y*t.c+t.e,s=this.x*t.b+this.y*t.d+t.f;return new x(e,s)}}class g{constructor(t,e,s,r,n,o){void 0===t?(this.a=1,this.b=0,this.c=0,this.d=1,this.e=0,this.f=0):(this.a=t,this.b=e,this.c=s,this.d=r,this.e=n,this.f=o)}toString(){return`affine: ${this.a} ${this.c} ${this.e} \n       ${this.b} ${this.d} ${this.f}`}append(t){t instanceof g||console.error(&quot;mesh.js: argument to Affine.append is not affine!&quot;);let e=this.a*t.a+this.c*t.b,s=this.b*t.a+this.d*t.b,r=this.a*t.c+this.c*t.d,n=this.b*t.c+this.d*t.d,o=this.a*t.e+this.c*t.f+this.e,i=this.b*t.e+this.d*t.f+this.f;return new g(e,s,r,n,o,i)}}class w{constructor(t,e){this.nodes=t,this.colors=e}paintCurve(t,e){if(o(this.nodes)&gt;r){const s=n(...this.nodes);let r=[[],[]],o=[[],[]];for(let t=0;t&lt;4;++t)r[0][t]=this.colors[0][t],r[1][t]=(this.colors[0][t]+this.colors[1][t])/2,o[0][t]=r[1][t],o[1][t]=this.colors[1][t];let i=new w(s[0],r),a=new w(s[1],o);i.paintCurve(t,e),a.paintCurve(t,e)}else{let s=Math.round(this.nodes[0].x);if(s&gt;=0&amp;&amp;s&lt;e){let r=4*(~~this.nodes[0].y*e+s);t[r]=Math.round(this.colors[0][0]),t[r+1]=Math.round(this.colors[0][1]),t[r+2]=Math.round(this.colors[0][2]),t[r+3]=Math.round(this.colors[0][3])}}}}class m{constructor(t,e){this.nodes=t,this.colors=e}split(){let t=[[],[],[],[]],e=[[],[],[],[]],s=[[[],[]],[[],[]]],r=[[[],[]],[[],[]]];for(let s=0;s&lt;4;++s){const r=n(this.nodes[0][s],this.nodes[1][s],this.nodes[2][s],this.nodes[3][s]);t[0][s]=r[0][0],t[1][s]=r[0][1],t[2][s]=r[0][2],t[3][s]=r[0][3],e[0][s]=r[1][0],e[1][s]=r[1][1],e[2][s]=r[1][2],e[3][s]=r[1][3]}for(let t=0;t&lt;4;++t)s[0][0][t]=this.colors[0][0][t],s[0][1][t]=this.colors[0][1][t],s[1][0][t]=(this.colors[0][0][t]+this.colors[1][0][t])/2,s[1][1][t]=(this.colors[0][1][t]+this.colors[1][1][t])/2,r[0][0][t]=s[1][0][t],r[0][1][t]=s[1][1][t],r[1][0][t]=this.colors[1][0][t],r[1][1][t]=this.colors[1][1][t];return[new m(t,s),new m(e,r)]}paint(t,e){let s,n=!1;for(let t=0;t&lt;4;++t)if((s=o([this.nodes[0][t],this.nodes[1][t],this.nodes[2][t],this.nodes[3][t]]))&gt;r){n=!0;break}if(n){let s=this.split();s[0].paint(t,e),s[1].paint(t,e)}else{new w([...this.nodes[0]],[...this.colors[0]]).paintCurve(t,e)}}}class b{constructor(t){this.readMesh(t),this.type=t.getAttribute(&quot;type&quot;)||&quot;bilinear&quot;}readMesh(t){let e=[[]],s=[[]],r=Number(t.getAttribute(&quot;x&quot;)),n=Number(t.getAttribute(&quot;y&quot;));e[0][0]=new x(r,n);let o=t.children;for(let t=0,r=o.length;t&lt;r;++t){e[3*t+1]=[],e[3*t+2]=[],e[3*t+3]=[],s[t+1]=[];let r=o[t].children;for(let n=0,o=r.length;n&lt;o;++n){let o=r[n].children;for(let r=0,i=o.length;r&lt;i;++r){let i=r;0!==t&amp;&amp;++i;let h,d=o[r].getAttribute(&quot;path&quot;),c=&quot;l&quot;;null!=d&amp;&amp;(c=(h=d.match(/\s*([lLcC])\s*(.*)/))[1]);let u=l(h[2]);switch(c){case&quot;l&quot;:0===i?(e[3*t][3*n+3]=u[0].add(e[3*t][3*n]),e[3*t][3*n+1]=a(e[3*t][3*n],e[3*t][3*n+3]),e[3*t][3*n+2]=a(e[3*t][3*n+3],e[3*t][3*n])):1===i?(e[3*t+3][3*n+3]=u[0].add(e[3*t][3*n+3]),e[3*t+1][3*n+3]=a(e[3*t][3*n+3],e[3*t+3][3*n+3]),e[3*t+2][3*n+3]=a(e[3*t+3][3*n+3],e[3*t][3*n+3])):2===i?(0===n&amp;&amp;(e[3*t+3][3*n+0]=u[0].add(e[3*t+3][3*n+3])),e[3*t+3][3*n+1]=a(e[3*t+3][3*n],e[3*t+3][3*n+3]),e[3*t+3][3*n+2]=a(e[3*t+3][3*n+3],e[3*t+3][3*n])):(e[3*t+1][3*n]=a(e[3*t][3*n],e[3*t+3][3*n]),e[3*t+2][3*n]=a(e[3*t+3][3*n],e[3*t][3*n]));break;case&quot;L&quot;:0===i?(e[3*t][3*n+3]=u[0],e[3*t][3*n+1]=a(e[3*t][3*n],e[3*t][3*n+3]),e[3*t][3*n+2]=a(e[3*t][3*n+3],e[3*t][3*n])):1===i?(e[3*t+3][3*n+3]=u[0],e[3*t+1][3*n+3]=a(e[3*t][3*n+3],e[3*t+3][3*n+3]),e[3*t+2][3*n+3]=a(e[3*t+3][3*n+3],e[3*t][3*n+3])):2===i?(0===n&amp;&amp;(e[3*t+3][3*n+0]=u[0]),e[3*t+3][3*n+1]=a(e[3*t+3][3*n],e[3*t+3][3*n+3]),e[3*t+3][3*n+2]=a(e[3*t+3][3*n+3],e[3*t+3][3*n])):(e[3*t+1][3*n]=a(e[3*t][3*n],e[3*t+3][3*n]),e[3*t+2][3*n]=a(e[3*t+3][3*n],e[3*t][3*n]));break;case&quot;c&quot;:0===i?(e[3*t][3*n+1]=u[0].add(e[3*t][3*n]),e[3*t][3*n+2]=u[1].add(e[3*t][3*n]),e[3*t][3*n+3]=u[2].add(e[3*t][3*n])):1===i?(e[3*t+1][3*n+3]=u[0].add(e[3*t][3*n+3]),e[3*t+2][3*n+3]=u[1].add(e[3*t][3*n+3]),e[3*t+3][3*n+3]=u[2].add(e[3*t][3*n+3])):2===i?(e[3*t+3][3*n+2]=u[0].add(e[3*t+3][3*n+3]),e[3*t+3][3*n+1]=u[1].add(e[3*t+3][3*n+3]),0===n&amp;&amp;(e[3*t+3][3*n+0]=u[2].add(e[3*t+3][3*n+3]))):(e[3*t+2][3*n]=u[0].add(e[3*t+3][3*n]),e[3*t+1][3*n]=u[1].add(e[3*t+3][3*n]));break;case&quot;C&quot;:0===i?(e[3*t][3*n+1]=u[0],e[3*t][3*n+2]=u[1],e[3*t][3*n+3]=u[2]):1===i?(e[3*t+1][3*n+3]=u[0],e[3*t+2][3*n+3]=u[1],e[3*t+3][3*n+3]=u[2]):2===i?(e[3*t+3][3*n+2]=u[0],e[3*t+3][3*n+1]=u[1],0===n&amp;&amp;(e[3*t+3][3*n+0]=u[2])):(e[3*t+2][3*n]=u[0],e[3*t+1][3*n]=u[1]);break;default:console.error(&quot;mesh.js: &quot;+c+&quot; invalid path type.&quot;)}if(0===t&amp;&amp;0===n||r&gt;0){let e=window.getComputedStyle(o[r]).stopColor.match(/^rgb\s*\(\s*(\d+)\s*,\s*(\d+)\s*,\s*(\d+)\s*\)$/i),a=window.getComputedStyle(o[r]).stopOpacity,h=255;a&amp;&amp;(h=Math.floor(255*a)),e&amp;&amp;(0===i?(s[t][n]=[],s[t][n][0]=Math.floor(e[1]),s[t][n][1]=Math.floor(e[2]),s[t][n][2]=Math.floor(e[3]),s[t][n][3]=h):1===i?(s[t][n+1]=[],s[t][n+1][0]=Math.floor(e[1]),s[t][n+1][1]=Math.floor(e[2]),s[t][n+1][2]=Math.floor(e[3]),s[t][n+1][3]=h):2===i?(s[t+1][n+1]=[],s[t+1][n+1][0]=Math.floor(e[1]),s[t+1][n+1][1]=Math.floor(e[2]),s[t+1][n+1][2]=Math.floor(e[3]),s[t+1][n+1][3]=h):3===i&amp;&amp;(s[t+1][n]=[],s[t+1][n][0]=Math.floor(e[1]),s[t+1][n][1]=Math.floor(e[2]),s[t+1][n][2]=Math.floor(e[3]),s[t+1][n][3]=h))}}e[3*t+1][3*n+1]=new x,e[3*t+1][3*n+2]=new x,e[3*t+2][3*n+1]=new x,e[3*t+2][3*n+2]=new x,e[3*t+1][3*n+1].x=(-4*e[3*t][3*n].x+6*(e[3*t][3*n+1].x+e[3*t+1][3*n].x)+-2*(e[3*t][3*n+3].x+e[3*t+3][3*n].x)+3*(e[3*t+3][3*n+1].x+e[3*t+1][3*n+3].x)+-1*e[3*t+3][3*n+3].x)/9,e[3*t+1][3*n+2].x=(-4*e[3*t][3*n+3].x+6*(e[3*t][3*n+2].x+e[3*t+1][3*n+3].x)+-2*(e[3*t][3*n].x+e[3*t+3][3*n+3].x)+3*(e[3*t+3][3*n+2].x+e[3*t+1][3*n].x)+-1*e[3*t+3][3*n].x)/9,e[3*t+2][3*n+1].x=(-4*e[3*t+3][3*n].x+6*(e[3*t+3][3*n+1].x+e[3*t+2][3*n].x)+-2*(e[3*t+3][3*n+3].x+e[3*t][3*n].x)+3*(e[3*t][3*n+1].x+e[3*t+2][3*n+3].x)+-1*e[3*t][3*n+3].x)/9,e[3*t+2][3*n+2].x=(-4*e[3*t+3][3*n+3].x+6*(e[3*t+3][3*n+2].x+e[3*t+2][3*n+3].x)+-2*(e[3*t+3][3*n].x+e[3*t][3*n+3].x)+3*(e[3*t][3*n+2].x+e[3*t+2][3*n].x)+-1*e[3*t][3*n].x)/9,e[3*t+1][3*n+1].y=(-4*e[3*t][3*n].y+6*(e[3*t][3*n+1].y+e[3*t+1][3*n].y)+-2*(e[3*t][3*n+3].y+e[3*t+3][3*n].y)+3*(e[3*t+3][3*n+1].y+e[3*t+1][3*n+3].y)+-1*e[3*t+3][3*n+3].y)/9,e[3*t+1][3*n+2].y=(-4*e[3*t][3*n+3].y+6*(e[3*t][3*n+2].y+e[3*t+1][3*n+3].y)+-2*(e[3*t][3*n].y+e[3*t+3][3*n+3].y)+3*(e[3*t+3][3*n+2].y+e[3*t+1][3*n].y)+-1*e[3*t+3][3*n].y)/9,e[3*t+2][3*n+1].y=(-4*e[3*t+3][3*n].y+6*(e[3*t+3][3*n+1].y+e[3*t+2][3*n].y)+-2*(e[3*t+3][3*n+3].y+e[3*t][3*n].y)+3*(e[3*t][3*n+1].y+e[3*t+2][3*n+3].y)+-1*e[3*t][3*n+3].y)/9,e[3*t+2][3*n+2].y=(-4*e[3*t+3][3*n+3].y+6*(e[3*t+3][3*n+2].y+e[3*t+2][3*n+3].y)+-2*(e[3*t+3][3*n].y+e[3*t][3*n+3].y)+3*(e[3*t][3*n+2].y+e[3*t+2][3*n].y)+-1*e[3*t][3*n].y)/9}}this.nodes=e,this.colors=s}paintMesh(t,e){let s=(this.nodes.length-1)/3,r=(this.nodes[0].length-1)/3;if(&quot;bilinear&quot;===this.type||s&lt;2||r&lt;2){let n;for(let o=0;o&lt;s;++o)for(let s=0;s&lt;r;++s){let r=[];for(let t=3*o,e=3*o+4;t&lt;e;++t)r.push(this.nodes[t].slice(3*s,3*s+4));let i=[];i.push(this.colors[o].slice(s,s+2)),i.push(this.colors[o+1].slice(s,s+2)),(n=new m(r,i)).paint(t,e)}}else{let n,o,a,h,l,d,u;const x=s,g=r;s++,r++;let w=new Array(s);for(let t=0;t&lt;s;++t){w[t]=new Array(r);for(let e=0;e&lt;r;++e)w[t][e]=[],w[t][e][0]=this.nodes[3*t][3*e],w[t][e][1]=this.colors[t][e]}for(let t=0;t&lt;s;++t)for(let e=0;e&lt;r;++e)0!==t&amp;&amp;t!==x&amp;&amp;(n=i(w[t-1][e][0],w[t][e][0]),o=i(w[t+1][e][0],w[t][e][0]),w[t][e][2]=c(w[t-1][e][1],w[t][e][1],w[t+1][e][1],n,o)),0!==e&amp;&amp;e!==g&amp;&amp;(n=i(w[t][e-1][0],w[t][e][0]),o=i(w[t][e+1][0],w[t][e][0]),w[t][e][3]=c(w[t][e-1][1],w[t][e][1],w[t][e+1][1],n,o));for(let t=0;t&lt;r;++t){w[0][t][2]=[],w[x][t][2]=[];for(let e=0;e&lt;4;++e)n=i(w[1][t][0],w[0][t][0]),o=i(w[x][t][0],w[x-1][t][0]),w[0][t][2][e]=n&gt;0?2*(w[1][t][1][e]-w[0][t][1][e])/n-w[1][t][2][e]:0,w[x][t][2][e]=o&gt;0?2*(w[x][t][1][e]-w[x-1][t][1][e])/o-w[x-1][t][2][e]:0}for(let t=0;t&lt;s;++t){w[t][0][3]=[],w[t][g][3]=[];for(let e=0;e&lt;4;++e)n=i(w[t][1][0],w[t][0][0]),o=i(w[t][g][0],w[t][g-1][0]),w[t][0][3][e]=n&gt;0?2*(w[t][1][1][e]-w[t][0][1][e])/n-w[t][1][3][e]:0,w[t][g][3][e]=o&gt;0?2*(w[t][g][1][e]-w[t][g-1][1][e])/o-w[t][g-1][3][e]:0}for(let s=0;s&lt;x;++s)for(let r=0;r&lt;g;++r){let n=i(w[s][r][0],w[s+1][r][0]),o=i(w[s][r+1][0],w[s+1][r+1][0]),c=i(w[s][r][0],w[s][r+1][0]),x=i(w[s+1][r][0],w[s+1][r+1][0]),g=[[],[],[],[]];for(let t=0;t&lt;4;++t){(d=[])[0]=w[s][r][1][t],d[1]=w[s+1][r][1][t],d[2]=w[s][r+1][1][t],d[3]=w[s+1][r+1][1][t],d[4]=w[s][r][2][t]*n,d[5]=w[s+1][r][2][t]*n,d[6]=w[s][r+1][2][t]*o,d[7]=w[s+1][r+1][2][t]*o,d[8]=w[s][r][3][t]*c,d[9]=w[s+1][r][3][t]*x,d[10]=w[s][r+1][3][t]*c,d[11]=w[s+1][r+1][3][t]*x,d[12]=0,d[13]=0,d[14]=0,d[15]=0,u=f(d);for(let e=0;e&lt;9;++e){g[t][e]=[];for(let s=0;s&lt;9;++s)g[t][e][s]=p(u,e/8,s/8),g[t][e][s]&gt;255?g[t][e][s]=255:g[t][e][s]&lt;0&amp;&amp;(g[t][e][s]=0)}}h=[];for(let t=3*s,e=3*s+4;t&lt;e;++t)h.push(this.nodes[t].slice(3*r,3*r+4));l=y(h);for(let s=0;s&lt;8;++s)for(let r=0;r&lt;8;++r)(a=new m(l[s][r],[[[g[0][s][r],g[1][s][r],g[2][s][r],g[3][s][r]],[g[0][s][r+1],g[1][s][r+1],g[2][s][r+1],g[3][s][r+1]]],[[g[0][s+1][r],g[1][s+1][r],g[2][s+1][r],g[3][s+1][r]],[g[0][s+1][r+1],g[1][s+1][r+1],g[2][s+1][r+1],g[3][s+1][r+1]]]])).paint(t,e)}}}transform(t){if(t instanceof x)for(let e=0,s=this.nodes.length;e&lt;s;++e)for(let s=0,r=this.nodes[0].length;s&lt;r;++s)this.nodes[e][s]=this.nodes[e][s].add(t);else if(t instanceof g)for(let e=0,s=this.nodes.length;e&lt;s;++e)for(let s=0,r=this.nodes[0].length;s&lt;r;++s)this.nodes[e][s]=this.nodes[e][s].transform(t)}scale(t){for(let e=0,s=this.nodes.length;e&lt;s;++e)for(let s=0,r=this.nodes[0].length;s&lt;r;++s)this.nodes[e][s]=this.nodes[e][s].scale(t)}}document.querySelectorAll(&quot;rect,circle,ellipse,path,text&quot;).forEach((r,n)=&gt;{let o=r.getAttribute(&quot;id&quot;);o||(o=&quot;patchjs_shape&quot;+n,r.setAttribute(&quot;id&quot;,o));const i=r.style.fill.match(/^url\(\s*&quot;?\s*#([^\s&quot;]+)&quot;?\s*\)/),a=r.style.stroke.match(/^url\(\s*&quot;?\s*#([^\s&quot;]+)&quot;?\s*\)/);if(i&amp;&amp;i[1]){const a=document.getElementById(i[1]);if(a&amp;&amp;&quot;meshgradient&quot;===a.nodeName){const i=r.getBBox();let l=document.createElementNS(s,&quot;canvas&quot;);d(l,{width:i.width,height:i.height});const c=l.getContext(&quot;2d&quot;);let u=c.createImageData(i.width,i.height);const f=new b(a);&quot;objectBoundingBox&quot;===a.getAttribute(&quot;gradientUnits&quot;)&amp;&amp;f.scale(new x(i.width,i.height));const p=a.getAttribute(&quot;gradientTransform&quot;);null!=p&amp;&amp;f.transform(h(p)),&quot;userSpaceOnUse&quot;===a.getAttribute(&quot;gradientUnits&quot;)&amp;&amp;f.transform(new x(-i.x,-i.y)),f.paintMesh(u.data,l.width),c.putImageData(u,0,0);const y=document.createElementNS(t,&quot;image&quot;);d(y,{width:i.width,height:i.height,x:i.x,y:i.y});let g=l.toDataURL();y.setAttributeNS(e,&quot;xlink:href&quot;,g),r.parentNode.insertBefore(y,r),r.style.fill=&quot;none&quot;;const w=document.createElementNS(t,&quot;use&quot;);w.setAttributeNS(e,&quot;xlink:href&quot;,&quot;#&quot;+o);const m=&quot;patchjs_clip&quot;+n,M=document.createElementNS(t,&quot;clipPath&quot;);M.setAttribute(&quot;id&quot;,m),M.appendChild(w),r.parentElement.insertBefore(M,r),y.setAttribute(&quot;clip-path&quot;,&quot;url(#&quot;+m+&quot;)&quot;),u=null,l=null,g=null}}if(a&amp;&amp;a[1]){const o=document.getElementById(a[1]);if(o&amp;&amp;&quot;meshgradient&quot;===o.nodeName){const i=parseFloat(r.style.strokeWidth.slice(0,-2))*(parseFloat(r.style.strokeMiterlimit)||parseFloat(r.getAttribute(&quot;stroke-miterlimit&quot;))||1),a=r.getBBox(),l=Math.trunc(a.width+i),c=Math.trunc(a.height+i),u=Math.trunc(a.x-i/2),f=Math.trunc(a.y-i/2);let p=document.createElementNS(s,&quot;canvas&quot;);d(p,{width:l,height:c});const y=p.getContext(&quot;2d&quot;);let g=y.createImageData(l,c);const w=new b(o);&quot;objectBoundingBox&quot;===o.getAttribute(&quot;gradientUnits&quot;)&amp;&amp;w.scale(new x(l,c));const m=o.getAttribute(&quot;gradientTransform&quot;);null!=m&amp;&amp;w.transform(h(m)),&quot;userSpaceOnUse&quot;===o.getAttribute(&quot;gradientUnits&quot;)&amp;&amp;w.transform(new x(-u,-f)),w.paintMesh(g.data,p.width),y.putImageData(g,0,0);const M=document.createElementNS(t,&quot;image&quot;);d(M,{width:l,height:c,x:0,y:0});let S=p.toDataURL();M.setAttributeNS(e,&quot;xlink:href&quot;,S);const k=&quot;pattern_clip&quot;+n,A=document.createElementNS(t,&quot;pattern&quot;);d(A,{id:k,patternUnits:&quot;userSpaceOnUse&quot;,width:l,height:c,x:u,y:f}),A.appendChild(M),o.parentNode.appendChild(A),r.style.stroke=&quot;url(#&quot;+k+&quot;)&quot;,g=null,p=null,S=null}}})}();
</script>
</svg>
